Biostat 203B Homework 1
…
Note: We found that there are some cases whose deathtime is missing but hospital_expire_flag equals 1. Referring to the other terms (e.g.discharge_location), hospital_expire_flag is turn out to be the more presise indicator. Thus, we decided to choose hospital_expire_flag as the indicator for death cases.

solution:

adm %>%
  filter(hospital_expire_flag == 1) %>%
  group_by(admission_year) %>%
  summarise(n = n(), .groups = "keep") %>%
  arrange(desc(n))

## # A tibble: 102 x 2
## # Groups:   admission_year [102]
##    admission_year     n
##             <dbl> <int>
##  1           2185   140
##  2           2138   136
##  3           2131   135
##  4           2134   134
##  5           2164   132
##  6           2133   129
##  7           2179   129
##  8           2130   128
##  9           2135   128
## 10           2175   127
## # ... with 92 more rows
…
